D:\SpaceWork\Disney_Challenge\Alkemy_Challenge_DisneyAPI-master\src\main\java\com\alkemy\DisneyAPI\model\AppUserRole.java
D:\SpaceWork\Disney_Challenge\Alkemy_Challenge_DisneyAPI-master\src\main\java\com\alkemy\DisneyAPI\security\token\ConfirmationTokenService.java
D:\SpaceWork\Disney_Challenge\Alkemy_Challenge_DisneyAPI-master\src\main\java\com\alkemy\DisneyAPI\repository\AppUserRepository.java
D:\SpaceWork\Disney_Challenge\Alkemy_Challenge_DisneyAPI-master\src\main\java\com\alkemy\DisneyAPI\controller\RegistrationController.java
D:\SpaceWork\Disney_Challenge\Alkemy_Challenge_DisneyAPI-master\src\main\java\com\alkemy\DisneyAPI\model\Movies.java
D:\SpaceWork\Disney_Challenge\Alkemy_Challenge_DisneyAPI-master\src\main\java\com\alkemy\DisneyAPI\services\GendersServices.java
D:\SpaceWork\Disney_Challenge\Alkemy_Challenge_DisneyAPI-master\src\main\java\com\alkemy\DisneyAPI\repository\CharacterRepository.java
D:\SpaceWork\Disney_Challenge\Alkemy_Challenge_DisneyAPI-master\src\main\java\com\alkemy\DisneyAPI\services\MoviesServices.java
D:\SpaceWork\Disney_Challenge\Alkemy_Challenge_DisneyAPI-master\src\main\java\com\alkemy\DisneyAPI\security\PasswordEncoder.java
D:\SpaceWork\Disney_Challenge\Alkemy_Challenge_DisneyAPI-master\src\main\java\com\alkemy\DisneyAPI\controller\CharactersController.java
D:\SpaceWork\Disney_Challenge\Alkemy_Challenge_DisneyAPI-master\src\main\java\com\alkemy\DisneyAPI\controller\MoviesController.java
D:\SpaceWork\Disney_Challenge\Alkemy_Challenge_DisneyAPI-master\src\main\java\com\alkemy\DisneyAPI\model\RegistrationRequest.java
D:\SpaceWork\Disney_Challenge\Alkemy_Challenge_DisneyAPI-master\src\main\java\com\alkemy\DisneyAPI\model\Genders.java
D:\SpaceWork\Disney_Challenge\Alkemy_Challenge_DisneyAPI-master\src\main\java\com\alkemy\DisneyAPI\repository\GendersRepository.java
D:\SpaceWork\Disney_Challenge\Alkemy_Challenge_DisneyAPI-master\src\main\java\com\alkemy\DisneyAPI\email\EmailService.java
D:\SpaceWork\Disney_Challenge\Alkemy_Challenge_DisneyAPI-master\src\main\java\com\alkemy\DisneyAPI\security\token\ConfirmationTokenRepository.java
D:\SpaceWork\Disney_Challenge\Alkemy_Challenge_DisneyAPI-master\src\main\java\com\alkemy\DisneyAPI\model\Characters.java
D:\SpaceWork\Disney_Challenge\Alkemy_Challenge_DisneyAPI-master\src\main\java\com\alkemy\DisneyAPI\services\CharacterServices.java
D:\SpaceWork\Disney_Challenge\Alkemy_Challenge_DisneyAPI-master\src\main\java\com\alkemy\DisneyAPI\repository\MoviesRepository.java
D:\SpaceWork\Disney_Challenge\Alkemy_Challenge_DisneyAPI-master\src\main\java\com\alkemy\DisneyAPI\services\RegistrationService.java
D:\SpaceWork\Disney_Challenge\Alkemy_Challenge_DisneyAPI-master\src\main\java\com\alkemy\DisneyAPI\email\EmailSender.java
D:\SpaceWork\Disney_Challenge\Alkemy_Challenge_DisneyAPI-master\src\main\java\com\alkemy\DisneyAPI\security\config\WebSecurityConfig.java
D:\SpaceWork\Disney_Challenge\Alkemy_Challenge_DisneyAPI-master\src\main\java\com\alkemy\DisneyAPI\security\token\ConfirmationToken.java
D:\SpaceWork\Disney_Challenge\Alkemy_Challenge_DisneyAPI-master\src\main\java\com\alkemy\DisneyAPI\model\AppUser.java
D:\SpaceWork\Disney_Challenge\Alkemy_Challenge_DisneyAPI-master\src\main\java\com\alkemy\DisneyAPI\DisneyApiApplication.java
D:\SpaceWork\Disney_Challenge\Alkemy_Challenge_DisneyAPI-master\src\main\java\com\alkemy\DisneyAPI\services\AppUserService.java
D:\SpaceWork\Disney_Challenge\Alkemy_Challenge_DisneyAPI-master\src\main\java\com\alkemy\DisneyAPI\security\EmailValidator.java
